…
```r
gapminder %>% 
  replace_with_na_all(condition = ~.x %in% c(common_na_strings, common_na_numbers))
```

```
## # A tibble: 1,704 × 6
##    country     continent  year lifeExp      pop gdpPercap
##    <fct>       <fct>     <int>   <dbl>    <int>     <dbl>
##  1 Afghanistan Asia       1952    28.8  8425333      779.
##  2 Afghanistan Asia       1957    30.3  9240934      821.
##  3 Afghanistan Asia       1962    32.0 10267083      853.
##  4 Afghanistan Asia       1967    34.0 11537966      836.
##  5 Afghanistan Asia       1972    36.1 13079460      740.
##  6 Afghanistan Asia       1977    38.4 14880372      786.
##  7 Afghanistan Asia       1982    39.9 12881816      978.
##  8 Afghanistan Asia       1987    40.8 13867957      852.
##  9 Afghanistan Asia       1992    41.7 16317921      649.
## 10 Afghanistan Asia       1997    41.8 22227415      635.
## # ℹ 1,694 more rows
```
…
```r
gapminder %>% 
  select(country, year, lifeExp) %>% 
  group_by(country) %>%
  pivot_wider( 
              names_from = year,
              values_from = lifeExp) %>% 
  summarize(min_lifeExp = min(`1952`:`2007`),
            max_lifeExp = max(`1952`:`2007`),
            mean_lifeExp = mean(`1952`:`2007`))
```

```
## # A tibble: 142 × 4
##    country     min_lifeExp max_lifeExp mean_lifeExp
##    <fct>             <dbl>       <dbl>        <dbl>
##  1 Afghanistan        28.8        43.8         36.3
##  2 Albania            55.2        76.2         65.7
##  3 Algeria            43.1        72.1         57.6
##  4 Angola             30.0        42.0         36.0
##  5 Argentina          62.5        74.5         68.5
##  6 Australia          69.1        81.1         75.1
##  7 Austria            66.8        79.8         73.3
##  8 Bahrain            50.9        74.9         62.9
##  9 Bangladesh         37.5        63.5         50.5
## 10 Belgium            68          79           73.5
## # ℹ 132 more rows
```
…
