…
**4. The variable `conservation` categorizes the conservation status of the mammals in the data. How many mammals are endangered?**
It appears like 4 mammals are endangered.

``` r
msleep
```

```
## # A tibble: 83 × 11
##    name   genus vore  order conservation sleep_total sleep_rem sleep_cycle awake
##    <chr>  <chr> <chr> <chr> <chr>              <dbl>     <dbl>       <dbl> <dbl>
##  1 Cheet… Acin… carni Carn… lc                  12.1      NA        NA      11.9
##  2 Owl m… Aotus omni  Prim… <NA>                17         1.8      NA       7  
##  3 Mount… Aplo… herbi Rode… nt                  14.4       2.4      NA       9.6
##  4 Great… Blar… omni  Sori… lc                  14.9       2.3       0.133   9.1
##  5 Cow    Bos   herbi Arti… domesticated         4         0.7       0.667  20  
##  6 Three… Brad… herbi Pilo… <NA>                14.4       2.2       0.767   9.6
##  7 North… Call… carni Carn… vu                   8.7       1.4       0.383  15.3
##  8 Vespe… Calo… <NA>  Rode… <NA>                 7        NA        NA      17  
##  9 Dog    Canis carni Carn… domesticated        10.1       2.9       0.333  13.9
## 10 Roe d… Capr… herbi Arti… lc                   3        NA        NA      21  
## # ℹ 73 more rows
## # ℹ 2 more variables: brainwt <dbl>, bodywt <dbl>
```
…
``` r
endangered <- filter(msleep, conservation == "en")
```

**6. The variable `vore` categorizes the feeding strategy of the mammals in the data. How many mammals are in each category of `vore`?**
There are 83 mammals in total. 19 of which are carnivorous. 32 are herbivorous. 20 are insectivorous. 5 are omnivorous.

``` r
vore_mammals <- select(msleep, name, vore)
vore_mammals
```

```
## # A tibble: 83 × 2
##    name                       vore 
##    <chr>                      <chr>
##  1 Cheetah                    carni
##  2 Owl monkey                 omni 
##  3 Mountain beaver            herbi
##  4 Greater short-tailed shrew omni 
##  5 Cow                        herbi
##  6 Three-toed sloth           herbi
##  7 Northern fur seal          carni
##  8 Vesper mouse               <NA> 
##  9 Dog                        carni
## 10 Roe deer                   herbi
## # ℹ 73 more rows
```
…
``` r
herbi_mammals
```

```
## # A tibble: 32 × 2
##    name             vore 
##    <chr>            <chr>
##  1 Mountain beaver  herbi
##  2 Cow              herbi
##  3 Three-toed sloth herbi
##  4 Roe deer         herbi
##  5 Goat             herbi
##  6 Guinea pig       herbi
##  7 Chinchilla       herbi
##  8 Tree hyrax       herbi
##  9 Asian elephant   herbi
## 10 Horse            herbi
## # ℹ 22 more rows
```
…
**8. We are interested in two groups; small and large mammals. Let's define small as less than or equal to 1kg body weight and large as greater than or equal to 200kg body weight. Make two new dataframes (large and small) based on these parameters.**

``` r
small_mammals <- filter(msleep, bodywt <= 1)
small_mammals
```

```
## # A tibble: 36 × 11
##    name   genus vore  order conservation sleep_total sleep_rem sleep_cycle awake
##    <chr>  <chr> <chr> <chr> <chr>              <dbl>     <dbl>       <dbl> <dbl>
##  1 Owl m… Aotus omni  Prim… <NA>                17         1.8      NA       7  
##  2 Great… Blar… omni  Sori… lc                  14.9       2.3       0.133   9.1
##  3 Vespe… Calo… <NA>  Rode… <NA>                 7        NA        NA      17  
##  4 Guine… Cavis herbi Rode… domesticated         9.4       0.8       0.217  14.6
##  5 Chinc… Chin… herbi Rode… domesticated        12.5       1.5       0.117  11.5
##  6 Star-… Cond… omni  Sori… lc                  10.3       2.2      NA      13.7
##  7 Afric… Cric… omni  Rode… <NA>                 8.3       2        NA      15.7
##  8 Lesse… Cryp… omni  Sori… lc                   9.1       1.4       0.15   14.9
##  9 Big b… Epte… inse… Chir… lc                  19.7       3.9       0.117   4.3
## 10 Europ… Erin… omni  Erin… lc                  10.1       3.5       0.283  13.9
## # ℹ 26 more rows
## # ℹ 2 more variables: brainwt <dbl>, bodywt <dbl>
```
…
