…
2. Notice that we have some bad superheros! Who are they? List their names below.  

```r
superhero_info %>% 
  select (name, alignment) %>% 
  filter(alignment == "bad")
```

```
## # A tibble: 207 × 2
##    name          alignment
##    <chr>         <chr>    
##  1 abomination   bad      
##  2 abraxas       bad      
##  3 absorbing man bad      
##  4 air-walker    bad      
##  5 ajax          bad      
##  6 alex mercer   bad      
##  7 alien         bad      
##  8 amazo         bad      
##  9 ammo          bad      
## 10 angela        bad      
## # ℹ 197 more rows
```
…
6. Who has the height advantage- bad guys or good guys? Convert their height to meters and sort from tallest to shortest.  

The good guys appear to have to have the height advantage.


```r
good_guys %>% 
  select(name, race, height) %>% 
  mutate(height = as.numeric(height)) %>% 
  mutate(height_meters = height/100) %>% 
  arrange(desc(height_meters))
```

```
## # A tibble: 496 × 4
##    name          race              height height_meters
##    <chr>         <chr>              <dbl>         <dbl>
##  1 fin fang foom kakarantharaian     975           9.75
##  2 groot         flora colossus      701           7.01
##  3 wolfsbane     <NA>                366           3.66
##  4 sasquatch     <NA>                305           3.05
##  5 ymir          frost giant         305.          3.05
##  6 rey           human               297           2.97
##  7 hellboy       demon               259           2.59
##  8 hulk          human / radiation   244           2.44
##  9 kilowog       bolovaxian          234           2.34
## 10 cloak         <NA>                226           2.26
## # ℹ 486 more rows
```


```r
bad_guys %>% 
  select(name, race, height) %>% 
  mutate(height = as.numeric(height)) %>% 
  mutate(height_meters = height/100) %>% 
  arrange(desc(height_meters))
```

```
## # A tibble: 207 × 4
##    name           race            height height_meters
##    <chr>          <chr>            <dbl>         <dbl>
##  1 modok          cyborg             366          3.66
##  2 onslaught      mutant             305          3.05
##  3 sauron         maiar              279          2.79
##  4 solomon grundy zombie             279          2.79
##  5 darkseid       new god            267          2.67
##  6 amazo          android            257          2.57
##  7 alien          xenomorph xx121    244          2.44
##  8 doomsday       alien              244          2.44
##  9 killer croc    metahuman          244          2.44
## 10 venom iii      symbiote           229          2.29
## # ℹ 197 more rows
```
…
