…
```r
fisheries %>% #my way where the total amount of rows gives the count of total countries
  count(country)
```

```
## # A tibble: 203 × 2
##    country                 n
##    <chr>               <int>
##  1 Albania               934
##  2 Algeria              1561
##  3 American Samoa        556
##  4 Angola               2119
##  5 Anguilla              129
##  6 Antigua and Barbuda   356
##  7 Argentina            3403
##  8 Aruba                 172
##  9 Australia            8183
## 10 Bahamas               423
## # ℹ 193 more rows
```
…
4. What is the total catch for each `isscaap_taxonomic_group` in the data set?

```r
fisheries %>% 
  group_by(isscaap_taxonomic_group) %>%
  summarize(total_catch = sum(catch, na.rm = T)) %>% 
  arrange(-total_catch)
```

```
## # A tibble: 30 × 2
##    isscaap_taxonomic_group         total_catch
##    <chr>                                 <dbl>
##  1 Herrings, sardines, anchovies       1898529
##  2 Cods, hakes, haddocks               1218092
##  3 Miscellaneous pelagic fishes        1217644
##  4 Miscellaneous coastal fishes         995248
##  5 Tunas, bonitos, billfishes           978951
##  6 Marine fishes not identified         863949
##  7 Miscellaneous demersal fishes        452445
##  8 Squids, cuttlefishes, octopuses      311928
##  9 Sharks, rays, chimaeras              263569
## 10 Shrimps, prawns                      228203
## # ℹ 20 more rows
```
…
7. Which country had the largest overall catch between the years 2002-2012?

```r
fisheries %>% 
  select(country, year, catch) %>% 
  filter(year>=2002 & year<=2012) %>% 
  group_by(country) %>% 
  summarize(total_catch = sum(catch, na.rm= TRUE)) %>% 
  arrange(desc(total_catch))
```

```
## # A tibble: 200 × 2
##    country                  total_catch
##    <chr>                          <dbl>
##  1 China                         269238
##  2 United States of America      167309
##  3 Russian Federation            112028
##  4 Indonesia                     104362
##  5 Japan                         104152
##  6 Chile                          97030
##  7 Spain                          92286
##  8 Peru                           86482
##  9 Portugal                       69778
## 10 India                          69681
## # ℹ 190 more rows
```
…
```r
fisheries %>% 
  select(country, catch, year) %>% 
  group_by(country, year) %>% 
  summarize(catch_total = sum(catch, na.rm=TRUE), .group = "keep") %>% 
  arrange(desc(catch_total))
```

```
## `summarise()` has grouped output by 'country'. You can override using the
## `.groups` argument.
```

```
## # A tibble: 11,583 × 4
## # Groups:   country [203]
##    country  year catch_total .group
##    <chr>   <dbl>       <dbl> <chr> 
##  1 Peru     1970       77000 keep  
##  2 Peru     1971       76800 keep  
##  3 Peru     1968       62700 keep  
##  4 China    2001       39327 keep  
##  5 Japan    1972       30167 keep  
##  6 Japan    1988       29701 keep  
##  7 China    2002       28967 keep  
##  8 China    2010       27851 keep  
##  9 Japan    1976       27825 keep  
## 10 China    1998       27593 keep  
## # ℹ 11,573 more rows
```

9. Fishing practices for sharks, rays, chimaeras and other cartilaginous fish (group 38) are of particular concern due to their conservation status. Make a new dataframe `sharks` that only contains data on this group. 

```r
sharks <- fisheries %>% 
  filter(isscaap_group_number == "38")
sharks
```

```
## # A tibble: 23,210 × 10
##    country common_name               isscaap_group_number isscaap_taxonomic_gr…¹
##    <chr>   <chr>                                    <dbl> <chr>                 
##  1 Albania Angelsharks, sand devils…                   38 Sharks, rays, chimaer…
##  2 Albania Angelsharks, sand devils…                   38 Sharks, rays, chimaer…
##  3 Albania Angelsharks, sand devils…                   38 Sharks, rays, chimaer…
##  4 Albania Angelsharks, sand devils…                   38 Sharks, rays, chimaer…
##  5 Albania Angelsharks, sand devils…                   38 Sharks, rays, chimaer…
##  6 Albania Angelsharks, sand devils…                   38 Sharks, rays, chimaer…
##  7 Albania Angelsharks, sand devils…                   38 Sharks, rays, chimaer…
##  8 Albania Angelsharks, sand devils…                   38 Sharks, rays, chimaer…
##  9 Albania Angelsharks, sand devils…                   38 Sharks, rays, chimaer…
## 10 Albania Angelsharks, sand devils…                   38 Sharks, rays, chimaer…
## # ℹ 23,200 more rows
## # ℹ abbreviated name: ¹​isscaap_taxonomic_group
## # ℹ 6 more variables: asfis_species_number <chr>, asfis_species_name <chr>,
## #   fao_major_fishing_area <dbl>, measure <chr>, year <dbl>, catch <dbl>
```

10. Using the `sharks` dataframe, use `mutate()` to create a new column called `fishing_pressure` that is based on the total catch. If the total catch is greater than 75, the fishing pressure is considered "high", otherwise it is considered "moderate".


```r
sharks <- sharks %>% #Proffs way
  mutate(fishing_pressure=ifelse(catch>75, "high", "moderate"))
sharks
```

```
## # A tibble: 23,210 × 11
##    country common_name               isscaap_group_number isscaap_taxonomic_gr…¹
##    <chr>   <chr>                                    <dbl> <chr>                 
##  1 Albania Angelsharks, sand devils…                   38 Sharks, rays, chimaer…
##  2 Albania Angelsharks, sand devils…                   38 Sharks, rays, chimaer…
##  3 Albania Angelsharks, sand devils…                   38 Sharks, rays, chimaer…
##  4 Albania Angelsharks, sand devils…                   38 Sharks, rays, chimaer…
##  5 Albania Angelsharks, sand devils…                   38 Sharks, rays, chimaer…
##  6 Albania Angelsharks, sand devils…                   38 Sharks, rays, chimaer…
##  7 Albania Angelsharks, sand devils…                   38 Sharks, rays, chimaer…
##  8 Albania Angelsharks, sand devils…                   38 Sharks, rays, chimaer…
##  9 Albania Angelsharks, sand devils…                   38 Sharks, rays, chimaer…
## 10 Albania Angelsharks, sand devils…                   38 Sharks, rays, chimaer…
## # ℹ 23,200 more rows
## # ℹ abbreviated name: ¹​isscaap_taxonomic_group
## # ℹ 7 more variables: asfis_species_number <chr>, asfis_species_name <chr>,
## #   fao_major_fishing_area <dbl>, measure <chr>, year <dbl>, catch <dbl>,
## #   fishing_pressure <chr>
```
…
Which country has caught the highest amount of the species, Rajiformes?


```r
fisheries %>% 
  select(country, asfis_species_name, catch) %>% 
  filter(asfis_species_name == "Rajiformes") %>% 
  group_by(country) %>% 
  summarize(total_catch = sum(catch, na.rm= TRUE)) %>% 
  arrange(desc(total_catch))
```

```
## # A tibble: 82 × 2
##    country                  total_catch
##    <chr>                          <dbl>
##  1 Korea, Republic of              3675
##  2 United States of America        3042
##  3 Australia                       2873
##  4 Indonesia                       1879
##  5 Portugal                        1650
##  6 Morocco                         1464
##  7 Benin                           1448
##  8 Pakistan                        1423
##  9 France                          1398
## 10 Dominican Republic              1314
## # ℹ 72 more rows
```
…
